C:\Satya\EclipseWorkSpace\student-debate\src\main\java\com\gl\controller\StudentController.java
C:\Satya\EclipseWorkSpace\student-debate\src\main\java\com\gl\repository\StudentRepository.java
C:\Satya\EclipseWorkSpace\student-debate\src\main\java\com\gl\service\StudentService.java
C:\Satya\EclipseWorkSpace\student-debate\src\main\java\com\gl\model\Student.java
